# Created by Octave 4.2.1, Wed Jun 28 23:43:56 2017 GMT <unknown@unknown>
# name: email
# type: sq_string
# elements: 1
# length: 23
fabio_vihoh@hotmail.com


# name: token
# type: sq_string
# elements: 1
# length: 16
84h6QhiB93MqJXAW


