# Created by Octave 4.2.1, Sun Jul 02 00:22:46 2017 GMT <unknown@unknown>
# name: email
# type: sq_string
# elements: 1
# length: 23
fabio_vihoh@hotmail.com


# name: token
# type: sq_string
# elements: 1
# length: 16
wrzVSjZ5KtWNZl2l


